  0
SECTION
  2
HEADER
  9
$ACADVER
  1
AC1015
  9
$ACADMAINTVER
 70
6
  9
$DWGCODEPAGE
  3
ANSI_1252
  9
$INSBASE
 10
0.0
 20
0.0
 30
0.0
  9
$EXTMIN
 10
1e+20
 20
1e+20
 30
1e+20
  9
$EXTMAX
 10
-1e+20
 20
-1e+20
 30
-1e+20
  9
$LIMMIN
 10
0.0
 20
0.0
  9
$LIMMAX
 10
420.0
 20
297.0
  9
$ORTHOMODE
 70
0
  9
$REGENMODE
 70
1
  9
$FILLMODE
 70
1
  9
$QTEXTMODE
 70
0
  9
$MIRRTEXT
 70
1
  9
$LTSCALE
 40
1.0
  9
$ATTMODE
 70
1
  9
$TEXTSIZE
 40
2.5
  9
$TRACEWID
 40
1.0
  9
$TEXTSTYLE
  7
Standard
  9
$CLAYER
  8
0
  9
$CELTYPE
  6
ByLayer
  9
$CECOLOR
 62
256
  9
$CELTSCALE
 40
1.0
  9
$DISPSILH
 70
0
  9
$DIMSCALE
 40
1.0
  9
$DIMASZ
 40
2.5
  9
$DIMEXO
 40
0.625
  9
$DIMDLI
 40
3.75
  9
$DIMRND
 40
0.0
  9
$DIMDLE
 40
0.0
  9
$DIMEXE
 40
1.25
  9
$DIMTP
 40
0.0
  9
$DIMTM
 40
0.0
  9
$DIMTXT
 40
2.5
  9
$DIMCEN
 40
2.5
  9
$DIMTSZ
 40
0.0
  9
$DIMTOL
 70
0
  9
$DIMLIM
 70
0
  9
$DIMTIH
 70
0
  9
$DIMTOH
 70
0
  9
$DIMSE1
 70
0
  9
$DIMSE2
 70
0
  9
$DIMTAD
 70
1
  9
$DIMZIN
 70
8
  9
$DIMBLK
  1

  9
$DIMASO
 70
1
  9
$DIMSHO
 70
1
  9
$DIMPOST
  1

  9
$DIMAPOST
  1

  9
$DIMALT
 70
0
  9
$DIMALTD
 70
3
  9
$DIMALTF
 40
0.03937007874
  9
$DIMLFAC
 40
1.0
  9
$DIMTOFL
 70
1
  9
$DIMTVP
 40
0.0
  9
$DIMTIX
 70
0
  9
$DIMSOXD
 70
0
  9
$DIMSAH
 70
0
  9
$DIMBLK1
  1

  9
$DIMBLK2
  1

  9
$DIMSTYLE
  2
ISO-25
  9
$DIMCLRD
 70
0
  9
$DIMCLRE
 70
0
  9
$DIMCLRT
 70
0
  9
$DIMTFAC
 40
1.0
  9
$DIMGAP
 40
0.625
  9
$DIMJUST
 70
0
  9
$DIMSD1
 70
0
  9
$DIMSD2
 70
0
  9
$DIMTOLJ
 70
0
  9
$DIMTZIN
 70
8
  9
$DIMALTZ
 70
0
  9
$DIMALTTZ
 70
0
  9
$DIMUPT
 70
0
  9
$DIMDEC
 70
2
  9
$DIMTDEC
 70
2
  9
$DIMALTU
 70
2
  9
$DIMALTTD
 70
3
  9
$DIMTXSTY
  7
Standard
  9
$DIMAUNIT
 70
0
  9
$DIMADEC
 70
0
  9
$DIMALTRND
 40
0.0
  9
$DIMAZIN
 70
0
  9
$DIMDSEP
 70
44
  9
$DIMATFIT
 70
3
  9
$DIMFRAC
 70
0
  9
$DIMLDRBLK
  1

  9
$DIMLUNIT
 70
2
  9
$DIMLWD
 70
-2
  9
$DIMLWE
 70
-2
  9
$DIMTMOVE
 70
0
  9
$LUNITS
 70
2
  9
$LUPREC
 70
4
  9
$SKETCHINC
 40
1.0
  9
$FILLETRAD
 40
10.0
  9
$AUNITS
 70
0
  9
$AUPREC
 70
2
  9
$MENU
  1
.
  9
$ELEVATION
 40
0.0
  9
$PELEVATION
 40
0.0
  9
$THICKNESS
 40
0.0
  9
$LIMCHECK
 70
0
  9
$CHAMFERA
 40
0.0
  9
$CHAMFERB
 40
0.0
  9
$CHAMFERC
 40
0.0
  9
$CHAMFERD
 40
0.0
  9
$SKPOLY
 70
0
  9
$TDCREATE
 40
2460373.486296296
  9
$TDUCREATE
 40
2458532.153996898
  9
$TDUPDATE
 40
2460373.4863194446
  9
$TDUUPDATE
 40
2458532.1544311
  9
$TDINDWG
 40
0.0
  9
$TDUSRTIMER
 40
0.0
  9
$USRTIMER
 70
1
  9
$ANGBASE
 50
0.0
  9
$ANGDIR
 70
0
  9
$PDMODE
 70
0
  9
$PDSIZE
 40
0.0
  9
$PLINEWID
 40
0.0
  9
$SPLFRAME
 70
0
  9
$SPLINETYPE
 70
6
  9
$SPLINESEGS
 70
8
  9
$HANDSEED
  5
15F
  9
$SURFTAB1
 70
6
  9
$SURFTAB2
 70
6
  9
$SURFTYPE
 70
6
  9
$SURFU
 70
6
  9
$SURFV
 70
6
  9
$UCSBASE
  2

  9
$UCSNAME
  2

  9
$UCSORG
 10
0.0
 20
0.0
 30
0.0
  9
$UCSXDIR
 10
1.0
 20
0.0
 30
0.0
  9
$UCSYDIR
 10
0.0
 20
1.0
 30
0.0
  9
$UCSORTHOREF
  2

  9
$UCSORTHOVIEW
 70
0
  9
$UCSORGTOP
 10
0.0
 20
0.0
 30
0.0
  9
$UCSORGBOTTOM
 10
0.0
 20
0.0
 30
0.0
  9
$UCSORGLEFT
 10
0.0
 20
0.0
 30
0.0
  9
$UCSORGRIGHT
 10
0.0
 20
0.0
 30
0.0
  9
$UCSORGFRONT
 10
0.0
 20
0.0
 30
0.0
  9
$UCSORGBACK
 10
0.0
 20
0.0
 30
0.0
  9
$PUCSBASE
  2

  9
$PUCSNAME
  2

  9
$PUCSORG
 10
0.0
 20
0.0
 30
0.0
  9
$PUCSXDIR
 10
1.0
 20
0.0
 30
0.0
  9
$PUCSYDIR
 10
0.0
 20
1.0
 30
0.0
  9
$PUCSORTHOREF
  2

  9
$PUCSORTHOVIEW
 70
0
  9
$PUCSORGTOP
 10
0.0
 20
0.0
 30
0.0
  9
$PUCSORGBOTTOM
 10
0.0
 20
0.0
 30
0.0
  9
$PUCSORGLEFT
 10
0.0
 20
0.0
 30
0.0
  9
$PUCSORGRIGHT
 10
0.0
 20
0.0
 30
0.0
  9
$PUCSORGFRONT
 10
0.0
 20
0.0
 30
0.0
  9
$PUCSORGBACK
 10
0.0
 20
0.0
 30
0.0
  9
$USERI1
 70
0
  9
$USERI2
 70
0
  9
$USERI3
 70
0
  9
$USERI4
 70
0
  9
$USERI5
 70
0
  9
$USERR1
 40
0.0
  9
$USERR2
 40
0.0
  9
$USERR3
 40
0.0
  9
$USERR4
 40
0.0
  9
$USERR5
 40
0.0
  9
$WORLDVIEW
 70
1
  9
$SHADEDGE
 70
3
  9
$SHADEDIF
 70
70
  9
$TILEMODE
 70
1
  9
$MAXACTVP
 70
64
  9
$PINSBASE
 10
0.0
 20
0.0
 30
0.0
  9
$PLIMCHECK
 70
0
  9
$PEXTMIN
 10
1e+20
 20
1e+20
 30
1e+20
  9
$PEXTMAX
 10
-1e+20
 20
-1e+20
 30
-1e+20
  9
$PLIMMIN
 10
0.0
 20
0.0
  9
$PLIMMAX
 10
420.0
 20
297.0
  9
$UNITMODE
 70
0
  9
$VISRETAIN
 70
1
  9
$PLINEGEN
 70
0
  9
$PSLTSCALE
 70
1
  9
$TREEDEPTH
 70
3020
  9
$CMLSTYLE
  2
Standard
  9
$CMLJUST
 70
0
  9
$CMLSCALE
 40
20.0
  9
$PROXYGRAPHICS
 70
1
  9
$MEASUREMENT
 70
1
  9
$CELWEIGHT
370
-1
  9
$ENDCAPS
280
0
  9
$JOINSTYLE
280
0
  9
$LWDISPLAY
290
0
  9
$INSUNITS
 70
6
  9
$HYPERLINKBASE
  1

  9
$STYLESHEET
  1

  9
$XEDIT
290
1
  9
$CEPSNTYPE
380
0
  9
$PSTYLEMODE
290
1
  9
$FINGERPRINTGUID
  2
{0F900FCB-6AAA-45BA-A080-E2282658A7E5}
  9
$VERSIONGUID
  2
{714A7DE4-C0DF-4F17-B1F9-7225C775D2B0}
  9
$EXTNAMES
290
1
  9
$PSVPSCALE
 40
0.0
  9
$OLESTARTUP
290
0
  0
ENDSEC
  0
SECTION
  2
CLASSES
  0
CLASS
  1
ACDBDICTIONARYWDFLT
  2
AcDbDictionaryWithDefault
  3
ObjectDBX Classes
 90
0
280
0
281
0
  0
CLASS
  1
SUN
  2
AcDbSun
  3
SCENEOE
 90
1153
280
0
281
0
  0
CLASS
  1
VISUALSTYLE
  2
AcDbVisualStyle
  3
ObjectDBX Classes
 90
4095
280
0
281
0
  0
CLASS
  1
MATERIAL
  2
AcDbMaterial
  3
ObjectDBX Classes
 90
1153
280
0
281
0
  0
CLASS
  1
SCALE
  2
AcDbScale
  3
ObjectDBX Classes
 90
1153
280
0
281
0
  0
CLASS
  1
TABLESTYLE
  2
AcDbTableStyle
  3
ObjectDBX Classes
 90
4095
280
0
281
0
  0
CLASS
  1
MLEADERSTYLE
  2
AcDbMLeaderStyle
  3
ACDB_MLEADERSTYLE_CLASS
 90
4095
280
0
281
0
  0
CLASS
  1
DICTIONARYVAR
  2
AcDbDictionaryVar
  3
ObjectDBX Classes
 90
0
280
0
281
0
  0
CLASS
  1
CELLSTYLEMAP
  2
AcDbCellStyleMap
  3
ObjectDBX Classes
 90
1152
280
0
281
0
  0
CLASS
  1
MENTALRAYRENDERSETTINGS
  2
AcDbMentalRayRenderSettings
  3
SCENEOE
 90
1024
280
0
281
0
  0
CLASS
  1
ACDBDETAILVIEWSTYLE
  2
AcDbDetailViewStyle
  3
ObjectDBX Classes
 90
1025
280
0
281
0
  0
CLASS
  1
ACDBSECTIONVIEWSTYLE
  2
AcDbSectionViewStyle
  3
ObjectDBX Classes
 90
1025
280
0
281
0
  0
CLASS
  1
RASTERVARIABLES
  2
AcDbRasterVariables
  3
ISM
 90
0
280
0
281
0
  0
CLASS
  1
ACDBPLACEHOLDER
  2
AcDbPlaceHolder
  3
ObjectDBX Classes
 90
0
280
0
281
0
  0
CLASS
  1
LAYOUT
  2
AcDbLayout
  3
ObjectDBX Classes
 90
0
280
0
281
0
  0
ENDSEC
  0
SECTION
  2
TABLES
  0
TABLE
  2
VPORT
  5
8
330
0
100
AcDbSymbolTable
 70
1
  0
VPORT
  5
23
330
8
100
AcDbSymbolTableRecord
100
AcDbViewportTableRecord
  2
*Active
 70
0
 10
0.0
 20
0.0
 11
1.0
 21
1.0
 12
0.0
 22
0.0
 13
0.0
 23
0.0
 14
0.5
 24
0.5
 15
0.5
 25
0.5
 16
0.0
 26
0.0
 36
1.0
 17
0.0
 27
0.0
 37
0.0
 40
1000.0
 41
1.34
 42
50.0
 43
0.0
 44
0.0
 50
0.0
 51
0.0
 71
0
 72
1000
 73
1
 74
3
 75
0
 76
0
 77
0
 78
0
281
0
 65
0
146
0.0
  0
ENDTAB
  0
TABLE
  2
LTYPE
  5
2
330
0
100
AcDbSymbolTable
 70
3
  0
LTYPE
  5
24
330
2
100
AcDbSymbolTableRecord
100
AcDbLinetypeTableRecord
  2
ByBlock
 70
0
  3

 72
65
 73
0
 40
0.0
  0
LTYPE
  5
25
330
2
100
AcDbSymbolTableRecord
100
AcDbLinetypeTableRecord
  2
ByLayer
 70
0
  3

 72
65
 73
0
 40
0.0
  0
LTYPE
  5
26
330
2
100
AcDbSymbolTableRecord
100
AcDbLinetypeTableRecord
  2
Continuous
 70
0
  3

 72
65
 73
0
 40
0.0
  0
ENDTAB
  0
TABLE
  2
LAYER
  5
1
330
0
100
AcDbSymbolTable
 70
2
  0
LAYER
  5
27
330
1
100
AcDbSymbolTableRecord
100
AcDbLayerTableRecord
  2
0
 70
0
 62
7
  6
Continuous
370
-3
390
13
  0
LAYER
  5
28
330
1
100
AcDbSymbolTableRecord
100
AcDbLayerTableRecord
  2
Defpoints
 70
0
 62
7
  6
Continuous
290
0
370
-3
390
13
  0
ENDTAB
  0
TABLE
  2
STYLE
  5
5
330
0
100
AcDbSymbolTable
 70
1
  0
STYLE
  5
29
330
5
100
AcDbSymbolTableRecord
100
AcDbTextStyleTableRecord
  2
Standard
 70
0
 40
0.0
 41
1.0
 50
0.0
 71
0
 42
2.5
  3
txt
  4

  0
ENDTAB
  0
TABLE
  2
VIEW
  5
7
330
0
100
AcDbSymbolTable
 70
0
  0
ENDTAB
  0
TABLE
  2
UCS
  5
6
330
0
100
AcDbSymbolTable
 70
0
  0
ENDTAB
  0
TABLE
  2
APPID
  5
3
330
0
100
AcDbSymbolTable
 70
3
  0
APPID
  5
2A
330
3
100
AcDbSymbolTableRecord
100
AcDbRegAppTableRecord
  2
ACAD
 70
0
  0
APPID
  5
15C
330
3
100
AcDbSymbolTableRecord
100
AcDbRegAppTableRecord
  2
HATCHBACKGROUNDCOLOR
 70
0
  0
APPID
  5
15D
330
3
100
AcDbSymbolTableRecord
100
AcDbRegAppTableRecord
  2
EZDXF
 70
0
  0
ENDTAB
  0
TABLE
  2
DIMSTYLE
  5
4
330
0
100
AcDbSymbolTable
 70
1
100
AcDbDimStyleTable
  0
DIMSTYLE
105
2B
330
4
100
AcDbSymbolTableRecord
100
AcDbDimStyleTableRecord
  2
Standard
 70
0
  3

  4

 40
1.0
 41
2.5
 42
0.625
 43
3.75
 44
1.25
 45
0.0
 46
0.0
 47
0.0
 48
0.0
140
2.5
141
2.5
142
0.0
143
0.03937007874
144
1.0
145
0.0
146
1.0
147
0.625
148
0.0
 71
0
 72
0
 73
0
 74
0
 75
0
 76
0
 77
1
 78
8
 79
3
170
0
171
3
172
1
173
0
174
0
175
0
176
0
177
0
178
0
179
2
271
2
272
2
273
2
274
3
275
0
276
0
277
2
278
44
279
0
280
0
281
0
282
0
283
0
284
8
285
0
286
0
288
0
289
3
371
-2
372
-2
  0
ENDTAB
  0
TABLE
  2
BLOCK_RECORD
  5
9
330
0
100
AcDbSymbolTable
 70
2
  0
BLOCK_RECORD
  5
17
330
9
100
AcDbSymbolTableRecord
100
AcDbBlockTableRecord
  2
*Model_Space
340
1A
  0
BLOCK_RECORD
  5
1B
330
9
100
AcDbSymbolTableRecord
100
AcDbBlockTableRecord
  2
*Paper_Space
340
1E
  0
ENDTAB
  0
ENDSEC
  0
SECTION
  2
BLOCKS
  0
BLOCK
  5
18
330
17
100
AcDbEntity
  8
0
100
AcDbBlockBegin
  2
*Model_Space
 70
0
 10
0.0
 20
0.0
 30
0.0
  3
*Model_Space
  1

  0
ENDBLK
  5
19
330
17
100
AcDbEntity
  8
0
100
AcDbBlockEnd
  0
BLOCK
  5
1C
330
1B
100
AcDbEntity
  8
0
100
AcDbBlockBegin
  2
*Paper_Space
 70
0
 10
0.0
 20
0.0
 30
0.0
  3
*Paper_Space
  1

  0
ENDBLK
  5
1D
330
1B
100
AcDbEntity
  8
0
100
AcDbBlockEnd
  0
ENDSEC
  0
SECTION
  2
ENTITIES
  0
CIRCLE
  5
2F
330
17
100
AcDbEntity
  8
0
100
AcDbCircle
 10
0.0
 20
0.0
 30
0.0
 40
0.2515949125081825
  0
CIRCLE
  5
30
330
17
100
AcDbEntity
  8
0
100
AcDbCircle
 10
-0.38601767006332954
 20
-0.09004651394100606
 30
0.0
 40
0.05117726798927665
  0
CIRCLE
  5
31
330
17
100
AcDbEntity
  8
0
100
AcDbCircle
 10
0.3339930490181888
 20
-0.20558485948116526
 30
0.0
 40
0.05596022812384702
  0
CIRCLE
  5
32
330
17
100
AcDbEntity
  8
0
100
AcDbCircle
 10
0.4437109441744923
 20
-0.44210348011396866
 30
0.0
 40
0.13697114372844915
  0
CIRCLE
  5
33
330
17
100
AcDbEntity
  8
0
100
AcDbCircle
 10
0.23270515795473806
 20
0.47630511611944765
 30
0.0
 40
0.04562314475420386
  0
CIRCLE
  5
34
330
17
100
AcDbEntity
  8
0
100
AcDbCircle
 10
-0.1751259741911871
 20
0.3530071639563948
 30
0.0
 40
0.04930596177872223
  0
CIRCLE
  5
35
330
17
100
AcDbEntity
  8
0
100
AcDbCircle
 10
-0.3663341528174945
 20
-0.5798089831149136
 30
0.0
 40
0.07790452240808264
  0
CIRCLE
  5
36
330
17
100
AcDbEntity
  8
0
100
AcDbCircle
 10
0.583326188087741
 20
0.2281838382361688
 30
0.0
 40
0.136794603181618
  0
CIRCLE
  5
37
330
17
100
AcDbEntity
  8
0
100
AcDbCircle
 10
-0.28842255169012004
 20
0.6720234380121554
 30
0.0
 40
0.024702360895909884
  0
CIRCLE
  5
38
330
17
100
AcDbEntity
  8
0
100
AcDbCircle
 10
-0.34879880808061553
 20
0.46572936649721497
 30
0.0
 40
0.093517832269183
  0
CIRCLE
  5
39
330
17
100
AcDbEntity
  8
0
100
AcDbCircle
 10
-0.11108633324501052
 20
0.5239317879770513
 30
0.0
 40
0.04050579443986284
  0
CIRCLE
  5
3A
330
17
100
AcDbEntity
  8
0
100
AcDbCircle
 10
-0.6260558109309574
 20
0.07048095381286118
 30
0.0
 40
0.13743647302955375
  0
CIRCLE
  5
3B
330
17
100
AcDbEntity
  8
0
100
AcDbCircle
 10
-0.0252626687129244
 20
-0.6889729252901116
 30
0.0
 40
0.07422802985793817
  0
CIRCLE
  5
3C
330
17
100
AcDbEntity
  8
0
100
AcDbCircle
 10
0.17065233944840918
 20
0.35587775473042993
 30
0.0
 40
0.059307813127295377
  0
CIRCLE
  5
3D
330
17
100
AcDbEntity
  8
0
100
AcDbCircle
 10
0.17853740684778646
 20
-0.3519205904668004
 30
0.0
 40
0.061714717457373086
  0
CIRCLE
  5
3E
330
17
100
AcDbEntity
  8
0
100
AcDbCircle
 10
0.009320390368233098
 20
0.7270850533826584
 30
0.0
 40
0.01416777835142479
  0
CIRCLE
  5
3F
330
17
100
AcDbEntity
  8
0
100
AcDbCircle
 10
-0.39083991393303524
 20
0.049573874770873064
 30
0.0
 40
0.0628123402199081
  0
CIRCLE
  5
40
330
17
100
AcDbEntity
  8
0
100
AcDbCircle
 10
-0.07534922845241152
 20
0.3177771808645181
 30
0.0
 40
0.002651038963368734
  0
CIRCLE
  5
41
330
17
100
AcDbEntity
  8
0
100
AcDbCircle
 10
-0.5493471129528739
 20
-0.40639601353384397
 30
0.0
 40
0.07974065422076662
  0
CIRCLE
  5
42
330
17
100
AcDbEntity
  8
0
100
AcDbCircle
 10
0.5175718844728883
 20
-0.12259979848498113
 30
0.0
 40
0.046030760281321026
  0
CIRCLE
  5
43
330
17
100
AcDbEntity
  8
0
100
AcDbCircle
 10
0.17007345934743537
 20
-0.7186487747872783
 30
0.0
 40
0.01842501952513245
  0
CIRCLE
  5
44
330
17
100
AcDbEntity
  8
0
100
AcDbCircle
 10
0.0740890690073251
 20
-0.5240849235926397
 30
0.0
 40
0.048924589585452365
  0
CIRCLE
  5
45
330
17
100
AcDbEntity
  8
0
100
AcDbCircle
 10
0.3962157623257423
 20
0.6173031983475717
 30
0.0
 40
0.013622780522056422
  0
CIRCLE
  5
46
330
17
100
AcDbEntity
  8
0
100
AcDbCircle
 10
0.370415850403634
 20
0.14264232987293585
 30
0.0
 40
0.05605460612458052
  0
CIRCLE
  5
47
330
17
100
AcDbEntity
  8
0
100
AcDbCircle
 10
-0.46847563776934115
 20
-0.5405488128107783
 30
0.0
 40
0.004538357524175871
  0
CIRCLE
  5
48
330
17
100
AcDbEntity
  8
0
100
AcDbCircle
 10
-0.31758335069391586
 20
-0.2343867349281102
 30
0.0
 40
0.057944515174908645
  0
CIRCLE
  5
49
330
17
100
AcDbEntity
  8
0
100
AcDbCircle
 10
0.44750134097579464
 20
-0.160264422389806
 30
0.0
 40
0.004871701989577208
  0
CIRCLE
  5
4A
330
17
100
AcDbEntity
  8
0
100
AcDbCircle
 10
-0.5291915987169821
 20
0.3594850223854441
 30
0.0
 40
0.02235591881829963
  0
CIRCLE
  5
4B
330
17
100
AcDbEntity
  8
0
100
AcDbCircle
 10
-0.22094538476258416
 20
-0.4818717346261627
 30
0.0
 40
0.04502562099084992
  0
CIRCLE
  5
4C
330
17
100
AcDbEntity
  8
0
100
AcDbCircle
 10
-0.05928096648429895
 20
0.6458505295920988
 30
0.0
 40
0.009202085847920802
  0
CIRCLE
  5
4D
330
17
100
AcDbEntity
  8
0
100
AcDbCircle
 10
0.3929598511943254
 20
0.43253456332235446
 30
0.0
 40
0.09136916484760788
  0
CIRCLE
  5
4E
330
17
100
AcDbEntity
  8
0
100
AcDbCircle
 10
-0.5981706507632217
 20
-0.22861177484817768
 30
0.0
 40
0.0325551359717521
  0
CIRCLE
  5
4F
330
17
100
AcDbEntity
  8
0
100
AcDbCircle
 10
0.3459815748453865
 20
-0.6443032355412837
 30
0.0
 40
0.022284354582955038
  0
CIRCLE
  5
50
330
17
100
AcDbEntity
  8
0
100
AcDbCircle
 10
0.673415288009708
 20
-0.1371024230880861
 30
0.0
 40
0.07749167325043493
  0
CIRCLE
  5
51
330
17
100
AcDbEntity
  8
0
100
AcDbCircle
 10
0.20526673594115083
 20
0.7134401898764917
 30
0.0
 40
0.012635359909787968
  0
CIRCLE
  5
52
330
17
100
AcDbEntity
  8
0
100
AcDbCircle
 10
-0.20913329399197783
 20
-0.7002867512293989
 30
0.0
 40
0.03312379283933166
  0
CIRCLE
  5
53
330
17
100
AcDbEntity
  8
0
100
AcDbCircle
 10
-0.2006611852865848
 20
-0.3441341234268399
 30
0.0
 40
0.06408102372407305
  0
CIRCLE
  5
54
330
17
100
AcDbEntity
  8
0
100
AcDbCircle
 10
-0.19369331448474567
 20
0.6068362872517657
 30
0.0
 40
0.041840013477636474
  0
CIRCLE
  5
55
330
17
100
AcDbEntity
  8
0
100
AcDbCircle
 10
-0.7155180934262765
 20
-0.1648010005584833
 30
0.0
 40
0.034743415062713966
  0
CIRCLE
  5
56
330
17
100
AcDbEntity
  8
0
100
AcDbCircle
 10
-0.009338518051611434
 20
0.3946016473112759
 30
0.0
 40
0.057253645674093745
  0
CIRCLE
  5
57
330
17
100
AcDbEntity
  8
0
100
AcDbCircle
 10
0.07264250149210907
 20
0.6374766651609847
 30
0.0
 40
0.034634368508149695
  0
CIRCLE
  5
58
330
17
100
AcDbEntity
  8
0
100
AcDbCircle
 10
0.7334834290362707
 20
0.021231407791701136
 30
0.0
 40
0.014030268310848226
  0
CIRCLE
  5
59
330
17
100
AcDbEntity
  8
0
100
AcDbCircle
 10
0.3958510887192029
 20
0.00528618357609067
 30
0.0
 40
0.055684037511234394
  0
CIRCLE
  5
5A
330
17
100
AcDbEntity
  8
0
100
AcDbCircle
 10
-0.2682266045822205
 20
0.2925473531948909
 30
0.0
 40
0.04245401348100258
  0
CIRCLE
  5
5B
330
17
100
AcDbEntity
  8
0
100
AcDbCircle
 10
0.0031512811546633127
 20
0.6399236309721554
 30
0.0
 40
0.01579356741574785
  0
CIRCLE
  5
5C
330
17
100
AcDbEntity
  8
0
100
AcDbCircle
 10
0.22959824920346045
 20
0.6047032834417604
 30
0.0
 40
0.017636784419969728
  0
CIRCLE
  5
5D
330
17
100
AcDbEntity
  8
0
100
AcDbCircle
 10
0.016389834967605512
 20
0.5551808888083744
 30
0.0
 40
0.0034438167725975126
  0
CIRCLE
  5
5E
330
17
100
AcDbEntity
  8
0
100
AcDbCircle
 10
0.08147705217229488
 20
-0.724322714143032
 30
0.0
 40
0.01058577421541758
  0
CIRCLE
  5
5F
330
17
100
AcDbEntity
  8
0
100
AcDbCircle
 10
-0.05575096106098401
 20
-0.5292272968183873
 30
0.0
 40
0.036299774586740226
  0
CIRCLE
  5
60
330
17
100
AcDbEntity
  8
0
100
AcDbCircle
 10
0.15971151880236129
 20
0.6204768577737695
 30
0.0
 40
0.027705203968706665
  0
CIRCLE
  5
61
330
17
100
AcDbEntity
  8
0
100
AcDbCircle
 10
-0.27768452721592646
 20
0.1591225942473287
 30
0.0
 40
0.005689753871039368
  0
CIRCLE
  5
62
330
17
100
AcDbEntity
  8
0
100
AcDbCircle
 10
0.3017812919998109
 20
0.07873777996958449
 30
0.0
 40
0.012648619230980344
  0
CIRCLE
  5
63
330
17
100
AcDbEntity
  8
0
100
AcDbCircle
 10
-0.04670638427996815
 20
-0.2923311398784029
 30
0.0
 40
0.010205426180968076
  0
CIRCLE
  5
64
330
17
100
AcDbEntity
  8
0
100
AcDbCircle
 10
-0.4097684352333389
 20
-0.3372250903887054
 30
0.0
 40
0.0431409487303661
  0
CIRCLE
  5
65
330
17
100
AcDbEntity
  8
0
100
AcDbCircle
 10
0.277699900525366
 20
0.29233290527873285
 30
0.0
 40
0.007466159323009898
  0
CIRCLE
  5
66
330
17
100
AcDbEntity
  8
0
100
AcDbCircle
 10
0.44931965950803204
 20
0.5802160233324779
 30
0.0
 40
0.018397099832319925
  0
CIRCLE
  5
67
330
17
100
AcDbEntity
  8
0
100
AcDbCircle
 10
-0.4212560123645342
 20
0.32528921256366355
 30
0.0
 40
0.031557099605117586
  0
CIRCLE
  5
68
330
17
100
AcDbEntity
  8
0
100
AcDbCircle
 10
0.5110505424789575
 20
0.5263378439336799
 30
0.0
 40
0.025265188730401136
  0
CIRCLE
  5
69
330
17
100
AcDbEntity
  8
0
100
AcDbCircle
 10
0.5345595796610527
 20
-0.008657416687234389
 30
0.0
 40
0.04804319415478415
  0
CIRCLE
  5
6A
330
17
100
AcDbEntity
  8
0
100
AcDbCircle
 10
0.25939573700182417
 20
-0.2834042566092378
 30
0.0
 40
0.028853411880297265
  0
CIRCLE
  5
6B
330
17
100
AcDbEntity
  8
0
100
AcDbCircle
 10
-0.6781891928189878
 20
0.2741255180405774
 30
0.0
 40
0.041952907792683874
  0
CIRCLE
  5
6C
330
17
100
AcDbEntity
  8
0
100
AcDbCircle
 10
-0.6388304151400107
 20
0.33743350133036465
 30
0.0
 40
0.00795176780594499
  0
CIRCLE
  5
6D
330
17
100
AcDbEntity
  8
0
100
AcDbCircle
 10
0.19116434597833662
 20
-0.6121017051788396
 30
0.0
 40
0.038015808332208335
  0
CIRCLE
  5
6E
330
17
100
AcDbEntity
  8
0
100
AcDbCircle
 10
-0.10068507768472884
 20
0.6294940016859423
 30
0.0
 40
0.011218125002828178
  0
CIRCLE
  5
6F
330
17
100
AcDbEntity
  8
0
100
AcDbCircle
 10
-0.1610295009660535
 20
0.7236552419618436
 30
0.0
 40
0.011400591164764667
  0
CIRCLE
  5
70
330
17
100
AcDbEntity
  8
0
100
AcDbCircle
 10
0.16902274580262133
 20
0.7231347012140954
 30
0.0
 40
0.005644571077370641
  0
CIRCLE
  5
71
330
17
100
AcDbEntity
  8
0
100
AcDbCircle
 10
0.7244558423774455
 20
0.10767690231367517
 30
0.0
 40
0.03176670248282616
  0
CIRCLE
  5
72
330
17
100
AcDbEntity
  8
0
100
AcDbCircle
 10
-0.32482340172047974
 20
-0.4279047337095575
 30
0.0
 40
0.04886020749039733
  0
CIRCLE
  5
73
330
17
100
AcDbEntity
  8
0
100
AcDbCircle
 10
0.12182704017014488
 20
-0.7294775768047899
 30
0.0
 40
0.007447261769732454
  0
CIRCLE
  5
74
330
17
100
AcDbEntity
  8
0
100
AcDbCircle
 10
-0.08095330989300346
 20
-0.38071740590206116
 30
0.0
 40
0.01844726239875569
  0
CIRCLE
  5
75
330
17
100
AcDbEntity
  8
0
100
AcDbCircle
 10
-0.5115392989562974
 20
-0.1501177357129963
 30
0.0
 40
0.0440633728715783
  0
CIRCLE
  5
76
330
17
100
AcDbEntity
  8
0
100
AcDbCircle
 10
0.149722279262147
 20
0.504496490360236
 30
0.0
 40
0.024656006059144142
  0
CIRCLE
  5
77
330
17
100
AcDbEntity
  8
0
100
AcDbCircle
 10
0.5732748297889786
 20
0.4501328969785
 30
0.0
 40
0.04571728964360182
  0
CIRCLE
  5
78
330
17
100
AcDbEntity
  8
0
100
AcDbCircle
 10
-0.2747276716728936
 20
0.05643374376314413
 30
0.0
 40
0.009437754835741302
  0
CIRCLE
  5
79
330
17
100
AcDbEntity
  8
0
100
AcDbCircle
 10
-0.28392462895111586
 20
-0.5085682914179328
 30
0.0
 40
0.0058764692869352755
  0
CIRCLE
  5
7A
330
17
100
AcDbEntity
  8
0
100
AcDbCircle
 10
-0.6055834100220482
 20
0.4156878872530026
 30
0.0
 40
0.02066508318906073
  0
CIRCLE
  5
7B
330
17
100
AcDbEntity
  8
0
100
AcDbCircle
 10
-0.35487492356492367
 20
0.15568385210587582
 30
0.0
 40
0.023166897358351753
  0
CIRCLE
  5
7C
330
17
100
AcDbEntity
  8
0
100
AcDbCircle
 10
-0.6827051881072366
 20
-0.246050276657561
 30
0.0
 40
0.014822881800586985
  0
CIRCLE
  5
7D
330
17
100
AcDbEntity
  8
0
100
AcDbCircle
 10
0.11366180957506566
 20
0.46825185780926437
 30
0.0
 40
0.008325285323363421
  0
CIRCLE
  5
7E
330
17
100
AcDbEntity
  8
0
100
AcDbCircle
 10
-0.15288249251213926
 20
-0.6271302243865308
 30
0.0
 40
0.020530617812440154
  0
CIRCLE
  5
7F
330
17
100
AcDbEntity
  8
0
100
AcDbCircle
 10
-0.5679068503221292
 20
0.29176799838882134
 30
0.0
 40
0.012320646453108961
  0
CIRCLE
  5
80
330
17
100
AcDbEntity
  8
0
100
AcDbCircle
 10
-0.26901320574066445
 20
-0.08083144658998259
 30
0.0
 40
0.003645182191750915
  0
CIRCLE
  5
81
330
17
100
AcDbEntity
  8
0
100
AcDbCircle
 10
-0.5216191319734518
 20
0.5111238270704641
 30
0.0
 40
0.012486603509433277
  0
CIRCLE
  5
82
330
17
100
AcDbEntity
  8
0
100
AcDbCircle
 10
0.3981678182990005
 20
-0.6179725048469119
 30
0.0
 40
0.017831829093539777
  0
CIRCLE
  5
83
330
17
100
AcDbEntity
  8
0
100
AcDbCircle
 10
0.014590960729335004
 20
-0.4098073327742429
 30
0.0
 40
0.013625437058262656
  0
CIRCLE
  5
84
330
17
100
AcDbEntity
  8
0
100
AcDbCircle
 10
-0.08971295578195201
 20
0.7270326217251348
 30
0.0
 40
0.027447636994101257
  0
CIRCLE
  5
85
330
17
100
AcDbEntity
  8
0
100
AcDbCircle
 10
-0.31505827733452835
 20
0.2168804538581653
 30
0.0
 40
0.021955202932002038
  0
CIRCLE
  5
86
330
17
100
AcDbEntity
  8
0
100
AcDbCircle
 10
0.21565605987418746
 20
-0.48505366052193133
 30
0.0
 40
0.05104052991219298
  0
CIRCLE
  5
87
330
17
100
AcDbEntity
  8
0
100
AcDbCircle
 10
-0.22630197450025627
 20
-0.5983834458662352
 30
0.0
 40
0.034424885536508666
  0
CIRCLE
  5
88
330
17
100
AcDbEntity
  8
0
100
AcDbCircle
 10
0.061806322465721805
 20
-0.3596970898395513
 30
0.0
 40
0.040148559112873204
  0
CIRCLE
  5
89
330
17
100
AcDbEntity
  8
0
100
AcDbCircle
 10
0.47723684332327765
 20
-0.23369645759126528
 30
0.0
 40
0.04519508388785212
  0
CIRCLE
  5
8A
330
17
100
AcDbEntity
  8
0
100
AcDbCircle
 10
0.2933445479732402
 20
0.24711587990867667
 30
0.0
 40
0.020460911049823827
  0
CIRCLE
  5
8B
330
17
100
AcDbEntity
  8
0
100
AcDbCircle
 10
-0.22776371333441156
 20
0.683291140003235
 30
0.0
 40
0.0030311693452436464
  0
CIRCLE
  5
8C
330
17
100
AcDbEntity
  8
0
100
AcDbCircle
 10
0.6196278029485961
 20
-0.2981498940468916
 30
0.0
 40
0.0749022479867587
  0
CIRCLE
  5
8D
330
17
100
AcDbEntity
  8
0
100
AcDbCircle
 10
-0.73081074147551
 20
-0.07833715356763053
 30
0.0
 40
0.016333557072134765
  0
CIRCLE
  5
8E
330
17
100
AcDbEntity
  8
0
100
AcDbCircle
 10
0.3759121736906085
 20
0.27023886793912444
 30
0.0
 40
0.01064621067424957
  0
CIRCLE
  5
8F
330
17
100
AcDbEntity
  8
0
100
AcDbCircle
 10
-0.22534750320142413
 20
0.2419728879890488
 30
0.0
 40
0.007827842596495242
  0
CIRCLE
  5
90
330
17
100
AcDbEntity
  8
0
100
AcDbCircle
 10
-0.5176643821193628
 20
0.2069740856977518
 30
0.0
 40
0.004203108995675073
  0
CIRCLE
  5
91
330
17
100
AcDbEntity
  8
0
100
AcDbCircle
 10
-0.6266386334926929
 20
-0.10617782846542966
 30
0.0
 40
0.0037840734315206675
  0
CIRCLE
  5
92
330
17
100
AcDbEntity
  8
0
100
AcDbCircle
 10
0.3096499078183815
 20
0.6647107523060246
 30
0.0
 40
0.009552149122575657
  0
CIRCLE
  5
93
330
17
100
AcDbEntity
  8
0
100
AcDbCircle
 10
-0.47358863541742924
 20
-0.24903161376774324
 30
0.0
 40
0.0382578010279844
  0
CIRCLE
  5
94
330
17
100
AcDbEntity
  8
0
100
AcDbCircle
 10
-0.46777842143766213
 20
0.42401572238363716
 30
0.0
 40
0.01590615290505802
  0
CIRCLE
  5
95
330
17
100
AcDbEntity
  8
0
100
AcDbCircle
 10
0.09581843784353299
 20
-0.4208594852878248
 30
0.0
 40
0.0134978507564079
  0
CIRCLE
  5
96
330
17
100
AcDbEntity
  8
0
100
AcDbCircle
 10
0.2996954019620699
 20
-0.03664098770848455
 30
0.0
 40
0.002993161316866486
  0
CIRCLE
  5
97
330
17
100
AcDbEntity
  8
0
100
AcDbCircle
 10
-0.18748951806195183
 20
0.47995808677255763
 30
0.0
 40
0.010842449576651684
  0
CIRCLE
  5
98
330
17
100
AcDbEntity
  8
0
100
AcDbCircle
 10
-0.38758315094872314
 20
0.6226369552997216
 30
0.0
 40
0.050792905942271746
  0
CIRCLE
  5
99
330
17
100
AcDbEntity
  8
0
100
AcDbCircle
 10
-0.4761322487864368
 20
-0.5744469047881607
 30
0.0
 40
0.012462811641627415
  0
CIRCLE
  5
9A
330
17
100
AcDbEntity
  8
0
100
AcDbCircle
 10
0.2498798696139238
 20
0.2058947560134335
 30
0.0
 40
0.009593649567207577
  0
CIRCLE
  5
9B
330
17
100
AcDbEntity
  8
0
100
AcDbCircle
 10
-0.47108636933310405
 20
0.2544708338691335
 30
0.0
 40
0.02179703699942418
  0
CIRCLE
  5
9C
330
17
100
AcDbEntity
  8
0
100
AcDbCircle
 10
0.37436533045184467
 20
-0.0935335083045129
 30
0.0
 40
0.018975268771077764
  0
CIRCLE
  5
9D
330
17
100
AcDbEntity
  8
0
100
AcDbCircle
 10
0.3088850358918734
 20
-0.1154418821010031
 30
0.0
 40
0.006135427181319686
  0
CIRCLE
  5
9E
330
17
100
AcDbEntity
  8
0
100
AcDbCircle
 10
0.556806135671447
 20
-0.20128115024118204
 30
0.0
 40
0.022923061957579073
  0
CIRCLE
  5
9F
330
17
100
AcDbEntity
  8
0
100
AcDbCircle
 10
-0.4671507696858462
 20
-0.004790097377817736
 30
0.0
 40
0.013684424401389532
  0
CIRCLE
  5
A0
330
17
100
AcDbEntity
  8
0
100
AcDbCircle
 10
-0.4569176172663571
 20
0.5731306531754954
 30
0.0
 40
0.018461970909001892
  0
CIRCLE
  5
A1
330
17
100
AcDbEntity
  8
0
100
AcDbCircle
 10
0.26170124394797123
 20
-0.6984630073179637
 30
0.0
 40
0.010867875453597286
  0
CIRCLE
  5
A2
330
17
100
AcDbEntity
  8
0
100
AcDbCircle
 10
-0.517073210284452
 20
-0.5224710238968079
 30
0.0
 40
0.01825223513967848
  0
CIRCLE
  5
A3
330
17
100
AcDbEntity
  8
0
100
AcDbCircle
 10
-0.48360788447717534
 20
-0.32136523936225214
 30
0.0
 40
0.004261708207095662
  0
CIRCLE
  5
A4
330
17
100
AcDbEntity
  8
0
100
AcDbCircle
 10
-0.48249036395831896
 20
0.19028370914783843
 30
0.0
 40
0.01506294801833722
  0
CIRCLE
  5
A5
330
17
100
AcDbEntity
  8
0
100
AcDbCircle
 10
0.6210372522896656
 20
0.39019039306260045
 30
0.0
 40
0.014479716471723702
  0
CIRCLE
  5
A6
330
17
100
AcDbEntity
  8
0
100
AcDbCircle
 10
-0.22429554971799603
 20
0.4563815984081749
 30
0.0
 40
0.006356811929073614
  0
CIRCLE
  5
A7
330
17
100
AcDbEntity
  8
0
100
AcDbCircle
 10
0.08134830487827789
 20
0.5239947199221064
 30
0.0
 40
0.024180045104073636
  0
CIRCLE
  5
A8
330
17
100
AcDbEntity
  8
0
100
AcDbCircle
 10
0.6520906313272882
 20
0.04680076301392024
 30
0.0
 40
0.0031141102124751362
  0
CIRCLE
  5
A9
330
17
100
AcDbEntity
  8
0
100
AcDbCircle
 10
-0.27777513504891815
 20
-0.6771496111143063
 30
0.0
 40
0.022544806058013414
  0
CIRCLE
  5
AA
330
17
100
AcDbEntity
  8
0
100
AcDbCircle
 10
-0.013576820605485313
 20
0.5317877364191286
 30
0.0
 40
0.011538288777932913
  0
CIRCLE
  5
AB
330
17
100
AcDbEntity
  8
0
100
AcDbCircle
 10
0.3274964136557771
 20
0.5507944017121802
 30
0.0
 40
0.027551805155417594
  0
CIRCLE
  5
AC
330
17
100
AcDbEntity
  8
0
100
AcDbCircle
 10
-0.4095066763718017
 20
-0.2719124331108764
 30
0.0
 40
0.005140148819642301
  0
CIRCLE
  5
AD
330
17
100
AcDbEntity
  8
0
100
AcDbCircle
 10
0.0024161729992777424
 20
-0.5536929580605516
 30
0.0
 40
0.01059023727731652
  0
CIRCLE
  5
AE
330
17
100
AcDbEntity
  8
0
100
AcDbCircle
 10
0.08645023870726962
 20
-0.6335508115066718
 30
0.0
 40
0.02513690619302232
  0
CIRCLE
  5
AF
330
17
100
AcDbEntity
  8
0
100
AcDbCircle
 10
0.2534703294815938
 20
0.690318148197168
 30
0.0
 40
0.013780024851638147
  0
CIRCLE
  5
B0
330
17
100
AcDbEntity
  8
0
100
AcDbCircle
 10
-0.09048147516024563
 20
-0.32136523936225203
 30
0.0
 40
0.013535741212121298
  0
CIRCLE
  5
B1
330
17
100
AcDbEntity
  8
0
100
AcDbCircle
 10
-0.19942325128709326
 20
-0.24674402277894603
 30
0.0
 40
0.014645418596119897
  0
CIRCLE
  5
B2
330
17
100
AcDbEntity
  8
0
100
AcDbCircle
 10
0.30101492880951514
 20
0.7057906667199265
 30
0.0
 40
0.007633662756728988
  0
CIRCLE
  5
B3
330
17
100
AcDbEntity
  8
0
100
AcDbCircle
 10
-0.08698696186259997
 20
-0.41940011562129004
 30
0.0
 40
0.0039947232158184555
  0
CIRCLE
  5
B4
330
17
100
AcDbEntity
  8
0
100
AcDbCircle
 10
-0.5190132288813211
 20
0.548022900579331
 30
0.0
 40
0.003538445270407725
  0
CIRCLE
  5
B5
330
17
100
AcDbEntity
  8
0
100
AcDbCircle
 10
-0.39169947494257884
 20
-0.17722632538119837
 30
0.0
 40
0.020521781433473517
  0
CIRCLE
  5
B6
330
17
100
AcDbEntity
  8
0
100
AcDbCircle
 10
0.03914570385009034
 20
0.4625740892374585
 30
0.0
 40
0.007925969871699317
  0
CIRCLE
  5
B7
330
17
100
AcDbEntity
  8
0
100
AcDbCircle
 10
-0.03202107426351511
 20
-0.4297165348546791
 30
0.0
 40
0.00573598346918936
  0
CIRCLE
  5
B8
330
17
100
AcDbEntity
  8
0
100
AcDbCircle
 10
0.28392462895111603
 20
0.38376625671414577
 30
0.0
 40
0.011070064561470933
  0
CIRCLE
  5
B9
330
17
100
AcDbEntity
  8
0
100
AcDbCircle
 10
-0.04056066127873075
 20
-0.3712860532437669
 30
0.0
 40
0.006498996142095573
  0
CIRCLE
  5
BA
330
17
100
AcDbEntity
  8
0
100
AcDbCircle
 10
-0.6592004918207769
 20
-0.30855202626883654
 30
0.0
 40
0.015868085405455302
  0
CIRCLE
  5
BB
330
17
100
AcDbEntity
  8
0
100
AcDbCircle
 10
0.2680623685195883
 20
-0.09404855991856538
 30
0.0
 40
0.00920396934403022
  0
CIRCLE
  5
BC
330
17
100
AcDbEntity
  8
0
100
AcDbCircle
 10
-0.13146920376286994
 20
0.6179815926463574
 30
0.0
 40
0.005208322047121719
  0
CIRCLE
  5
BD
330
17
100
AcDbEntity
  8
0
100
AcDbCircle
 10
0.3547137710209683
 20
0.6297833062406466
 30
0.0
 40
0.011159710193296821
  0
CIRCLE
  5
BE
330
17
100
AcDbEntity
  8
0
100
AcDbCircle
 10
0.0429816422928754
 20
0.728345748164296
 30
0.0
 40
0.003060329722487174
  0
CIRCLE
  5
BF
330
17
100
AcDbEntity
  8
0
100
AcDbCircle
 10
-0.5486276447786742
 20
-0.07418302848516478
 30
0.0
 40
0.0049253294379715575
  0
CIRCLE
  5
C0
330
17
100
AcDbEntity
  8
0
100
AcDbCircle
 10
0.134519880224975
 20
-0.44149188063398137
 30
0.0
 40
0.00725630923079287
  0
CIRCLE
  5
C1
330
17
100
AcDbEntity
  8
0
100
AcDbCircle
 10
-0.29962874080200813
 20
0.12183010067507
 30
0.0
 40
0.006768931605954039
  0
CIRCLE
  5
C2
330
17
100
AcDbEntity
  8
0
100
AcDbCircle
 10
0.06263696949164632
 20
0.31582871131863527
 30
0.0
 40
0.03314285500983756
  0
CIRCLE
  5
C3
330
17
100
AcDbEntity
  8
0
100
AcDbCircle
 10
-0.24024391680479026
 20
0.5522490035642585
 30
0.0
 40
0.01247549746353138
  0
CIRCLE
  5
C4
330
17
100
AcDbEntity
  8
0
100
AcDbCircle
 10
-0.10470205037958073
 20
-0.6103532620810328
 30
0.0
 40
0.005179215924889174
  0
CIRCLE
  5
C5
330
17
100
AcDbEntity
  8
0
100
AcDbCircle
 10
-0.4002298994739934
 20
0.16302681249442272
 30
0.0
 40
0.005166687074369768
  0
CIRCLE
  5
C6
330
17
100
AcDbEntity
  8
0
100
AcDbCircle
 10
-0.6202080477983668
 20
0.36624773521592446
 30
0.0
 40
0.007541740528624058
  0
CIRCLE
  5
C7
330
17
100
AcDbEntity
  8
0
100
AcDbCircle
 10
-0.047366532972237196
 20
0.7677567790395806
 30
0.0
 40
0.015898869116198193
  0
CIRCLE
  5
C8
330
17
100
AcDbEntity
  8
0
100
AcDbCircle
 10
-0.14526783299143076
 20
-0.7284790914994035
 30
0.0
 40
0.009216571541824653
  0
CIRCLE
  5
C9
330
17
100
AcDbEntity
  8
0
100
AcDbCircle
 10
-0.458647477536418
 20
-0.08424137342505639
 30
0.0
 40
0.003954439312154713
  0
CIRCLE
  5
CA
330
17
100
AcDbEntity
  8
0
100
AcDbCircle
 10
0.2730313039467157
 20
0.652784909372417
 30
0.0
 40
0.012301886477044896
  0
CIRCLE
  5
CB
330
17
100
AcDbEntity
  8
0
100
AcDbCircle
 10
-0.19116121522123106
 20
0.6924417147383641
 30
0.0
 40
0.008020430562545613
  0
CIRCLE
  5
CC
330
17
100
AcDbEntity
  8
0
100
AcDbCircle
 10
0.19328715124749052
 20
-0.26536032628892753
 30
0.0
 40
0.006719555454158362
  0
CIRCLE
  5
CD
330
17
100
AcDbEntity
  8
0
100
AcDbCircle
 10
0.4036448238013548
 20
-0.14356551790870367
 30
0.0
 40
0.009520711058881632
  0
CIRCLE
  5
CE
330
17
100
AcDbEntity
  8
0
100
AcDbCircle
 10
0.19032310292327556
 20
-0.7581723608255072
 30
0.0
 40
0.005803628676654639
  0
CIRCLE
  5
CF
330
17
100
AcDbEntity
  8
0
100
AcDbCircle
 10
0.12802719048394373
 20
0.722985657601785
 30
0.0
 40
0.013305374698863136
  0
CIRCLE
  5
D0
330
17
100
AcDbEntity
  8
0
100
AcDbCircle
 10
0.14664239077695002
 20
0.26520432374554787
 30
0.0
 40
0.01680598344988856
  0
CIRCLE
  5
D1
330
17
100
AcDbEntity
  8
0
100
AcDbCircle
 10
0.2803783736643334
 20
-0.3806713432353192
 30
0.0
 40
0.0033175780853198994
  0
CIRCLE
  5
D2
330
17
100
AcDbEntity
  8
0
100
AcDbCircle
 10
0.430294360751974
 20
-0.09552296151398741
 30
0.0
 40
0.021758107580097764
  0
CIRCLE
  5
D3
330
17
100
AcDbEntity
  8
0
100
AcDbCircle
 10
-0.28392462895111586
 20
-0.12168198383619237
 30
0.0
 40
0.011363210515126714
  0
CIRCLE
  5
D4
330
17
100
AcDbEntity
  8
0
100
AcDbCircle
 10
-0.03432055954354142
 20
-0.3276053410974413
 30
0.0
 40
0.005581075026459432
  0
CIRCLE
  5
D5
330
17
100
AcDbEntity
  8
0
100
AcDbCircle
 10
0.4084753422868704
 20
-0.24062824174381395
 30
0.0
 40
0.005780477218437149
  0
CIRCLE
  5
D6
330
17
100
AcDbEntity
  8
0
100
AcDbCircle
 10
-0.3549597504900821
 20
0.6934712663452058
 30
0.0
 40
0.004119799230509417
  0
CIRCLE
  5
D7
330
17
100
AcDbEntity
  8
0
100
AcDbCircle
 10
-0.4030640884952631
 20
0.2284546642754684
 30
0.0
 40
0.01288644574439541
  0
CIRCLE
  5
D8
330
17
100
AcDbEntity
  8
0
100
AcDbCircle
 10
-0.5133443644316854
 20
-0.043741683606073396
 30
0.0
 40
0.0035620183680636513
  0
CIRCLE
  5
D9
330
17
100
AcDbEntity
  8
0
100
AcDbCircle
 10
-0.17232549250422377
 20
-0.5577581462602602
 30
0.0
 40
0.006562459433562591
  0
CIRCLE
  5
DA
330
17
100
AcDbEntity
  8
0
100
AcDbCircle
 10
-0.1417505066847047
 20
0.45273526107443435
 30
0.0
 40
0.018342959063382062
  0
CIRCLE
  5
DB
330
17
100
AcDbEntity
  8
0
100
AcDbCircle
 10
-0.11298731446473716
 20
0.280092975396827
 30
0.0
 40
0.00832945074718469
  0
CIRCLE
  5
DC
330
17
100
AcDbEntity
  8
0
100
AcDbCircle
 10
-0.04917029765718572
 20
0.6069393169349043
 30
0.0
 40
0.014685810081811216
  0
CIRCLE
  5
DD
330
17
100
AcDbEntity
  8
0
100
AcDbCircle
 10
0.6396104278569095
 20
0.45240737580122853
 30
0.0
 40
0.0038144987221247232
  0
CIRCLE
  5
DE
330
17
100
AcDbEntity
  8
0
100
AcDbCircle
 10
0.24214569012144194
 20
-0.22171787504447582
 30
0.0
 40
0.018892156985275948
  0
CIRCLE
  5
DF
330
17
100
AcDbEntity
  8
0
100
AcDbCircle
 10
0.5999559103163308
 20
-0.40580189401660066
 30
0.0
 40
0.0054073963037370555
  0
CIRCLE
  5
E0
330
17
100
AcDbEntity
  8
0
100
AcDbCircle
 10
0.2679868279240899
 20
0.12531972154534937
 30
0.0
 40
0.007604567673202781
  0
CIRCLE
  5
E1
330
17
100
AcDbEntity
  8
0
100
AcDbCircle
 10
0.1693459117580304
 20
0.6856390834529275
 30
0.0
 40
0.016823235823831748
  0
CIRCLE
  5
E2
330
17
100
AcDbEntity
  8
0
100
AcDbCircle
 10
0.09048147516024573
 20
0.25896422201035846
 30
0.0
 40
0.004119240523253625
  0
CIRCLE
  5
E3
330
17
100
AcDbEntity
  8
0
100
AcDbCircle
 10
-0.5427761748226394
 20
-0.24376670424503635
 30
0.0
 40
0.008896937728758944
  0
CIRCLE
  5
E4
330
17
100
AcDbEntity
  8
0
100
AcDbCircle
 10
-0.08424137342505625
 20
0.2589642220103584
 30
0.0
 40
0.004588058774949538
  0
CIRCLE
  5
E5
330
17
100
AcDbEntity
  8
0
100
AcDbCircle
 10
0.6372587118114545
 20
-0.01531415614462365
 30
0.0
 40
0.005120680347181645
  0
CIRCLE
  5
E6
330
17
100
AcDbEntity
  8
0
100
AcDbCircle
 10
-0.5616170667154756
 20
0.48078167080591155
 30
0.0
 40
0.010729595185596796
  0
CIRCLE
  5
E7
330
17
100
AcDbEntity
  8
0
100
AcDbCircle
 10
0.6981638089245662
 20
-0.2361027425095555
 30
0.0
 40
0.0060446336181268255
  0
CIRCLE
  5
E8
330
17
100
AcDbEntity
  8
0
100
AcDbCircle
 10
-0.2835893309720455
 20
0.5869693295872592
 30
0.0
 40
0.02676463831308422
  0
CIRCLE
  5
E9
330
17
100
AcDbEntity
  8
0
100
AcDbCircle
 10
-0.18670837487216396
 20
0.25326282569134184
 30
0.0
 40
0.01439608269830715
  0
CIRCLE
  5
EA
330
17
100
AcDbEntity
  8
0
100
AcDbCircle
 10
0.32486668765160265
 20
-0.29940394027577744
 30
0.0
 40
0.0034931417049887475
  0
CIRCLE
  5
EB
330
17
100
AcDbEntity
  8
0
100
AcDbCircle
 10
-0.6081974125876717
 20
0.2463276356646461
 30
0.0
 40
0.008802580447315494
  0
CIRCLE
  5
EC
330
17
100
AcDbEntity
  8
0
100
AcDbCircle
 10
-0.002332411057747641
 20
0.5724034229973813
 30
0.0
 40
0.006899753391301133
  0
CIRCLE
  5
ED
330
17
100
AcDbEntity
  8
0
100
AcDbCircle
 10
-0.3119845350162543
 20
0.015494996569869737
 30
0.0
 40
0.006803272633539145
  0
CIRCLE
  5
EE
330
17
100
AcDbEntity
  8
0
100
AcDbCircle
 10
-0.29882088352537406
 20
-0.3498295829385819
 30
0.0
 40
0.015014728311084719
  0
CIRCLE
  5
EF
330
17
100
AcDbEntity
  8
0
100
AcDbCircle
 10
-0.42460194621606406
 20
-0.4741221095261859
 30
0.0
 40
0.018830298413688662
  0
CIRCLE
  5
F0
330
17
100
AcDbEntity
  8
0
100
AcDbCircle
 10
-0.17467256924479205
 20
-0.7584984490717903
 30
0.0
 40
0.00889532576443673
  0
CIRCLE
  5
F1
330
17
100
AcDbEntity
  8
0
100
AcDbCircle
 10
-0.7299118232926446
 20
-0.2482778811969887
 30
0.0
 40
0.01387686104060586
  0
CIRCLE
  5
F2
330
17
100
AcDbEntity
  8
0
100
AcDbCircle
 10
-0.09048147516024564
 20
-0.4836078844771754
 30
0.0
 40
0.005053893617833396
  0
CIRCLE
  5
F3
330
17
100
AcDbEntity
  8
0
100
AcDbCircle
 10
-0.6050945999051032
 20
0.3123189091629304
 30
0.0
 40
0.0034881583779729102
  0
CIRCLE
  5
F4
330
17
100
AcDbEntity
  8
0
100
AcDbCircle
 10
0.11522697997095428
 20
-0.5780954271188904
 30
0.0
 40
0.003925047254511636
  0
CIRCLE
  5
F5
330
17
100
AcDbEntity
  8
0
100
AcDbCircle
 10
0.5044396692744425
 20
0.5868049794952249
 30
0.0
 40
0.0035684809289700543
  0
CIRCLE
  5
F6
330
17
100
AcDbEntity
  8
0
100
AcDbCircle
 10
0.0811538968291591
 20
-0.4502671456334001
 30
0.0
 40
0.0035890012274594854
  0
CIRCLE
  5
F7
330
17
100
AcDbEntity
  8
0
100
AcDbCircle
 10
-0.5900553132961224
 20
-0.5096511753751578
 30
0.0
 40
0.004163735860643493
  0
CIRCLE
  5
F8
330
17
100
AcDbEntity
  8
0
100
AcDbCircle
 10
0.08539099423887234
 20
0.7268007338057897
 30
0.0
 40
0.01367161296716828
  0
CIRCLE
  5
F9
330
17
100
AcDbEntity
  8
0
100
AcDbCircle
 10
-0.6438962008554078
 20
0.38613174941237516
 30
0.0
 40
0.005791550048274034
  0
CIRCLE
  5
FA
330
17
100
AcDbEntity
  8
0
100
AcDbCircle
 10
0.46173629480212114
 20
0.11238832796967545
 30
0.0
 40
0.009639138052324182
  0
CIRCLE
  5
FB
330
17
100
AcDbEntity
  8
0
100
AcDbCircle
 10
0.08642952825140325
 20
0.4056754907525742
 30
0.0
 40
0.02352211832281452
  0
CIRCLE
  5
FC
330
17
100
AcDbEntity
  8
0
100
AcDbCircle
 10
-0.3374335013303646
 20
0.33743350133036465
 30
0.0
 40
0.004367433912860015
  0
CIRCLE
  5
FD
330
17
100
AcDbEntity
  8
0
100
AcDbCircle
 10
0.28816766592437254
 20
-0.5057003576097512
 30
0.0
 40
0.007159184486640378
  0
CIRCLE
  5
FE
330
17
100
AcDbEntity
  8
0
100
AcDbCircle
 10
-0.40615262168913735
 20
-0.4253409345248448
 30
0.0
 40
0.0030751269033411095
  0
CIRCLE
  5
FF
330
17
100
AcDbEntity
  8
0
100
AcDbCircle
 10
-0.031131283588119996
 20
0.6725931769151999
 30
0.0
 40
0.009596193525935133
  0
CIRCLE
  5
100
330
17
100
AcDbEntity
  8
0
100
AcDbCircle
 10
0.3306382328727073
 20
-0.062458097001906084
 30
0.0
 40
0.009678593593048866
  0
CIRCLE
  5
101
330
17
100
AcDbEntity
  8
0
100
AcDbCircle
 10
-0.5793981761623854
 20
0.32914384492918464
 30
0.0
 40
0.0029148121131875155
  0
CIRCLE
  5
102
330
17
100
AcDbEntity
  8
0
100
AcDbCircle
 10
0.6310489153952786
 20
0.07655943067041784
 30
0.0
 40
0.004538257313914974
  0
CIRCLE
  5
103
330
17
100
AcDbEntity
  8
0
100
AcDbCircle
 10
0.4024865619197139
 20
-0.6708109365328562
 30
0.0
 40
0.0045067262041047
  0
CIRCLE
  5
104
330
17
100
AcDbEntity
  8
0
100
AcDbCircle
 10
-0.5670408687610056
 20
-0.2868048047074481
 30
0.0
 40
0.01813819689084896
  0
CIRCLE
  5
105
330
17
100
AcDbEntity
  8
0
100
AcDbCircle
 10
-0.6429459887608326
 20
-0.12517344345272677
 30
0.0
 40
0.005027151962822339
  0
CIRCLE
  5
106
330
17
100
AcDbEntity
  8
0
100
AcDbCircle
 10
-0.5058787652151877
 20
0.4268722982698294
 30
0.0
 40
0.006848023910423431
  0
CIRCLE
  5
107
330
17
100
AcDbEntity
  8
0
100
AcDbCircle
 10
-0.5709693087698265
 20
0.5272885966235008
 30
0.0
 40
0.005685677063188071
  0
CIRCLE
  5
108
330
17
100
AcDbEntity
  8
0
100
AcDbCircle
 10
-0.6104820515400459
 20
0.4711765459560264
 30
0.0
 40
0.006267026831821027
  0
CIRCLE
  5
109
330
17
100
AcDbEntity
  8
0
100
AcDbCircle
 10
-0.7581723608255072
 20
-0.12168198383619239
 30
0.0
 40
0.005837041011685257
  0
CIRCLE
  5
10A
330
17
100
AcDbEntity
  8
0
100
AcDbCircle
 10
0.12168198383619257
 20
-0.2652043237455478
 30
0.0
 40
0.024792968879261162
  0
CIRCLE
  5
10B
330
17
100
AcDbEntity
  8
0
100
AcDbCircle
 10
0.2809166303073556
 20
-0.5747032474077284
 30
0.0
 40
0.019081443292043098
  0
CIRCLE
  5
10C
330
17
100
AcDbEntity
  8
0
100
AcDbCircle
 10
-0.23664655185643904
 20
0.40844707113417283
 30
0.0
 40
0.006085095679881116
  0
CIRCLE
  5
10D
330
17
100
AcDbEntity
  8
0
100
AcDbCircle
 10
0.491807815235862
 20
-0.5998233023427476
 30
0.0
 40
0.00813555061270305
  0
CIRCLE
  5
10E
330
17
100
AcDbEntity
  8
0
100
AcDbCircle
 10
0.3340997779289155
 20
-0.5730826583646514
 30
0.0
 40
0.0181141935686722
  0
CIRCLE
  5
10F
330
17
100
AcDbEntity
  8
0
100
AcDbCircle
 10
-0.13131684029495003
 20
-0.45836035940695136
 30
0.0
 40
0.02778415626828725
  0
CIRCLE
  5
110
330
17
100
AcDbEntity
  8
0
100
AcDbCircle
 10
-0.7562810542513003
 20
-0.03966053147642415
 30
0.0
 40
0.014126730823166461
  0
CIRCLE
  5
111
330
17
100
AcDbEntity
  8
0
100
AcDbCircle
 10
-0.6084099191809627
 20
-0.1591225942473287
 30
0.0
 40
0.009540660269714216
  0
CIRCLE
  5
112
330
17
100
AcDbEntity
  8
0
100
AcDbCircle
 10
0.6158329414422932
 20
0.03627421879780824
 30
0.0
 40
0.01951180569770488
  0
CIRCLE
  5
113
330
17
100
AcDbEntity
  8
0
100
AcDbCircle
 10
-0.2197691398301902
 20
0.5120804405548426
 30
0.0
 40
0.004147111454292688
  0
CIRCLE
  5
114
330
17
100
AcDbEntity
  8
0
100
AcDbCircle
 10
0.21949557853528573
 20
-0.7109035901814478
 30
0.0
 40
0.005997580778938853
  0
CIRCLE
  5
115
330
17
100
AcDbEntity
  8
0
100
AcDbCircle
 10
0.7581723608255073
 20
-0.003120050867594614
 30
0.0
 40
0.00530963893076092
  0
CIRCLE
  5
116
330
17
100
AcDbEntity
  8
0
100
AcDbCircle
 10
-0.48742807270609917
 20
-0.06910928640179194
 30
0.0
 40
0.008589359778343793
  0
CIRCLE
  5
117
330
17
100
AcDbEntity
  8
0
100
AcDbCircle
 10
0.24042692668277243
 20
0.274609033120432
 30
0.0
 40
0.018063686866398868
  0
CIRCLE
  5
118
330
17
100
AcDbEntity
  8
0
100
AcDbCircle
 10
-0.43752688098906367
 20
0.15586286846870775
 30
0.0
 40
0.008987274500245213
  0
CIRCLE
  5
119
330
17
100
AcDbEntity
  8
0
100
AcDbCircle
 10
-0.6355302634009166
 20
-0.17466942991989926
 30
0.0
 40
0.006502204401744553
  0
CIRCLE
  5
11A
330
17
100
AcDbEntity
  8
0
100
AcDbCircle
 10
0.02772580170757716
 20
0.5178391292816654
 30
0.0
 40
0.007395452191726361
  0
CIRCLE
  5
11B
330
17
100
AcDbEntity
  8
0
100
AcDbCircle
 10
0.6136183163734393
 20
-0.440067708533556
 30
0.0
 40
0.014661120219122702
  0
CIRCLE
  5
11C
330
17
100
AcDbEntity
  8
0
100
AcDbCircle
 10
-0.49918475829353076
 20
0.4712054557895645
 30
0.0
 40
0.0025152440666569693
  0
CIRCLE
  5
11D
330
17
100
AcDbEntity
  8
0
100
AcDbCircle
 10
-0.11466186938410446
 20
-0.28501664675477395
 30
0.0
 40
0.01258318048363652
  0
CIRCLE
  5
11E
330
17
100
AcDbEntity
  8
0
100
AcDbCircle
 10
-0.5460089018290689
 20
-0.5522490035642584
 30
0.0
 40
0.0050129345857086475
  0
CIRCLE
  5
11F
330
17
100
AcDbEntity
  8
0
100
AcDbCircle
 10
0.19656320465846489
 20
0.22152361159922238
 30
0.0
 40
0.016542097809160723
  0
CIRCLE
  5
120
330
17
100
AcDbEntity
  8
0
100
AcDbCircle
 10
0.05304086474910963
 20
0.6957713434736137
 30
0.0
 40
0.006209762403335628
  0
CIRCLE
  5
121
330
17
100
AcDbEntity
  8
0
100
AcDbCircle
 10
-0.5743965228395134
 20
0.2574130338616538
 30
0.0
 40
0.005816985551356977
  0
CIRCLE
  5
122
330
17
100
AcDbEntity
  8
0
100
AcDbCircle
 10
0.3062746460935477
 20
-0.009994450424762033
 30
0.0
 40
0.0025410470250428964
  0
CIRCLE
  5
123
330
17
100
AcDbEntity
  8
0
100
AcDbCircle
 10
0.25297502995703197
 20
-0.15198728917278118
 30
0.0
 40
0.022733148564534993
  0
CIRCLE
  5
124
330
17
100
AcDbEntity
  8
0
100
AcDbCircle
 10
-0.20733012973670922
 20
0.7177217947214399
 30
0.0
 40
0.004340700755925055
  0
CIRCLE
  5
125
330
17
100
AcDbEntity
  8
0
100
AcDbCircle
 10
0.5813061170508599
 20
0.5241144474368086
 30
0.0
 40
0.003597786319853693
  0
CIRCLE
  5
126
330
17
100
AcDbEntity
  8
0
100
AcDbCircle
 10
0.2595748233014397
 20
0.3384884862982118
 30
0.0
 40
0.013231765914975718
  0
CIRCLE
  5
127
330
17
100
AcDbEntity
  8
0
100
AcDbCircle
 10
-0.3598711711944372
 20
-0.6872290553794945
 30
0.0
 40
0.009521547506356342
  0
CIRCLE
  5
128
330
17
100
AcDbEntity
  8
0
100
AcDbCircle
 10
-0.015600254337973284
 20
0.3026449341566839
 30
0.0
 40
0.005388941461598253
  0
CIRCLE
  5
129
330
17
100
AcDbEntity
  8
0
100
AcDbCircle
 10
0.5056585252486766
 20
0.08145737473664522
 30
0.0
 40
0.013530608518005962
  0
CIRCLE
  5
12A
330
17
100
AcDbEntity
  8
0
100
AcDbCircle
 10
-0.3091200765135593
 20
0.7135081079892631
 30
0.0
 40
0.004670543555070944
  0
CIRCLE
  5
12B
330
17
100
AcDbEntity
  8
0
100
AcDbCircle
 10
-0.29727107081247817
 20
-0.014496654543333657
 30
0.0
 40
0.007151898363975187
  0
CIRCLE
  5
12C
330
17
100
AcDbEntity
  8
0
100
AcDbCircle
 10
-0.4681385981402885
 20
0.46529588275034467
 30
0.0
 40
0.007984586454929936
  0
CIRCLE
  5
12D
330
17
100
AcDbEntity
  8
0
100
AcDbCircle
 10
0.7768926660310755
 20
0.08424137342505642
 30
0.0
 40
0.004811620472636336
  0
CIRCLE
  5
12E
330
17
100
AcDbEntity
  8
0
100
AcDbCircle
 10
-0.1501130946448663
 20
0.6844072698214932
 30
0.0
 40
0.013337242582737344
  0
CIRCLE
  5
12F
330
17
100
AcDbEntity
  8
0
100
AcDbCircle
 10
0.34008554456782025
 20
-0.32136523936225203
 30
0.0
 40
0.0057407183322682
  0
CIRCLE
  5
130
330
17
100
AcDbEntity
  8
0
100
AcDbCircle
 10
0.14715718242700562
 20
-0.5266903422782826
 30
0.0
 40
0.009017345587085796
  0
CIRCLE
  5
131
330
17
100
AcDbEntity
  8
0
100
AcDbCircle
 10
0.7263063286976971
 20
-0.03783069883960019
 30
0.0
 40
0.009999918384449306
  0
CIRCLE
  5
132
330
17
100
AcDbEntity
  8
0
100
AcDbCircle
 10
0.3436561915535806
 20
0.243583863739153
 30
0.0
 40
0.0049483518115669796
  0
CIRCLE
  5
133
330
17
100
AcDbEntity
  8
0
100
AcDbCircle
 10
-0.49039804520690994
 20
0.5297002489291157
 30
0.0
 40
0.0039896371929914465
  0
CIRCLE
  5
134
330
17
100
AcDbEntity
  8
0
100
AcDbCircle
 10
0.054596226091687614
 20
0.7689847329505637
 30
0.0
 40
0.010839664221192003
  0
CIRCLE
  5
135
330
17
100
AcDbEntity
  8
0
100
AcDbCircle
 10
0.02746261874365415
 20
-0.5903152979398171
 30
0.0
 40
0.016381786331015776
  0
CIRCLE
  5
136
330
17
100
AcDbEntity
  8
0
100
AcDbCircle
 10
0.04688480198785858
 20
0.5551829515169442
 30
0.0
 40
0.003552104863128682
  0
CIRCLE
  5
137
330
17
100
AcDbEntity
  8
0
100
AcDbCircle
 10
0.2878617207976218
 20
-0.6619248603757144
 30
0.0
 40
0.005476032612040339
  0
CIRCLE
  5
138
330
17
100
AcDbEntity
  8
0
100
AcDbCircle
 10
-0.21294347171333683
 20
-0.18673504442554162
 30
0.0
 40
0.008453400938153827
  0
CIRCLE
  5
139
330
17
100
AcDbEntity
  8
0
100
AcDbCircle
 10
0.445938683848244
 20
-0.6060004385043126
 30
0.0
 40
0.0041997475294200705
  0
CIRCLE
  5
13A
330
17
100
AcDbEntity
  8
0
100
AcDbCircle
 10
-0.27454902504720397
 20
-0.03473706575995445
 30
0.0
 40
0.006047968512897352
  0
CIRCLE
  5
13B
330
17
100
AcDbEntity
  8
0
100
AcDbCircle
 10
0.1313361812709626
 20
-0.642995187792266
 30
0.0
 40
0.005725200795065052
  0
CIRCLE
  5
13C
330
17
100
AcDbEntity
  8
0
100
AcDbCircle
 10
-0.2402439168047903
 20
-0.13416218730657126
 30
0.0
 40
0.005130963041058593
  0
CIRCLE
  5
13D
330
17
100
AcDbEntity
  8
0
100
AcDbCircle
 10
0.3115467478087018
 20
0.29318216895678134
 30
0.0
 40
0.010483840398037124
  0
CIRCLE
  5
13E
330
17
100
AcDbEntity
  8
0
100
AcDbCircle
 10
-0.6708109365328562
 20
-0.3775261549789563
 30
0.0
 40
0.005059179353896606
  0
CIRCLE
  5
13F
330
17
100
AcDbEntity
  8
0
100
AcDbCircle
 10
0.505631916175657
 20
0.4740074456376202
 30
0.0
 40
0.007861994023093304
  0
CIRCLE
  5
140
330
17
100
AcDbEntity
  8
0
100
AcDbCircle
 10
0.18408300118808624
 20
0.5584891052994477
 30
0.0
 40
0.017635433412371164
  0
CIRCLE
  5
141
330
17
100
AcDbEntity
  8
0
100
AcDbCircle
 10
0.10099898585923435
 20
0.768433261741348
 30
0.0
 40
0.007560739653509497
  0
CIRCLE
  5
142
330
17
100
AcDbEntity
  8
0
100
AcDbCircle
 10
0.11544188210100324
 20
-0.4648875792716073
 30
0.0
 40
0.004903427242870214
  0
CIRCLE
  5
143
330
17
100
AcDbEntity
  8
0
100
AcDbCircle
 10
-0.24831353455265986
 20
0.12625990351760055
 30
0.0
 40
0.010582839896979824
  0
CIRCLE
  5
144
330
17
100
AcDbEntity
  8
0
100
AcDbCircle
 10
0.3525657480381989
 20
-0.12792208557138177
 30
0.0
 40
0.0029654955030177835
  0
CIRCLE
  5
145
330
17
100
AcDbEntity
  8
0
100
AcDbCircle
 10
-0.666058158967972
 20
0.35993884468025705
 30
0.0
 40
0.011439806620174155
  0
CIRCLE
  5
146
330
17
100
AcDbEntity
  8
0
100
AcDbCircle
 10
-0.305020233962282
 20
0.07378634372736949
 30
0.0
 40
0.008293029678358106
  0
CIRCLE
  5
147
330
17
100
AcDbEntity
  8
0
100
AcDbCircle
 10
0.3747982204284157
 20
0.6782205641535356
 30
0.0
 40
0.009797101384765302
  0
CIRCLE
  5
148
330
17
100
AcDbEntity
  8
0
100
AcDbCircle
 10
0.6749870263848883
 20
-0.0031317184806928917
 30
0.0
 40
0.01914745758632371
  0
CIRCLE
  5
149
330
17
100
AcDbEntity
  8
0
100
AcDbCircle
 10
-0.5114574090968567
 20
-0.5683142612441187
 30
0.0
 40
0.0028066916128115928
  0
CIRCLE
  5
14A
330
17
100
AcDbEntity
  8
0
100
AcDbCircle
 10
-0.5903241616833833
 20
-0.10011880999267322
 30
0.0
 40
0.014595929474222022
  0
CIRCLE
  5
14B
330
17
100
AcDbEntity
  8
0
100
AcDbCircle
 10
-0.4960880879475541
 20
0.3276053410974415
 30
0.0
 40
0.003651536090972247
  0
CIRCLE
  5
14C
330
17
100
AcDbEntity
  8
0
100
AcDbCircle
 10
-0.15027168100098567
 20
-0.5177215250535635
 30
0.0
 40
0.01111686195424392
  0
CIRCLE
  5
14D
330
17
100
AcDbEntity
  8
0
100
AcDbCircle
 10
-0.14908089444445136
 20
0.7670943295586627
 30
0.0
 40
0.0026962028502538903
  0
CIRCLE
  5
14E
330
17
100
AcDbEntity
  8
0
100
AcDbCircle
 10
0.3294226381035324
 20
0.21589104150022592
 30
0.0
 40
0.010807497810201952
  0
CIRCLE
  5
14F
330
17
100
AcDbEntity
  8
0
100
AcDbCircle
 10
0.12168198383619257
 20
0.4399271723308499
 30
0.0
 40
0.005422786960278646
  0
CIRCLE
  5
150
330
17
100
AcDbEntity
  8
0
100
AcDbCircle
 10
-0.4849118362043924
 20
0.14310119858179102
 30
0.0
 40
0.005821440174862391
  0
CIRCLE
  5
151
330
17
100
AcDbEntity
  8
0
100
AcDbCircle
 10
0.018545906047986258
 20
0.5957199873612521
 30
0.0
 40
0.006650692955237755
  0
CIRCLE
  5
152
330
17
100
AcDbEntity
  8
0
100
AcDbCircle
 10
-0.11544188210100309
 20
-0.40872666365490307
 30
0.0
 40
0.0031215123359800826
  0
CIRCLE
  5
153
330
17
100
AcDbEntity
  8
0
100
AcDbCircle
 10
-0.4731491026917961
 20
0.037321136731724096
 30
0.0
 40
0.0031418419048446665
  0
CIRCLE
  5
154
330
17
100
AcDbEntity
  8
0
100
AcDbCircle
 10
0.27144442548073733
 20
-0.33384544283263073
 30
0.0
 40
0.006626994171842074
  0
CIRCLE
  5
155
330
17
100
AcDbEntity
  8
0
100
AcDbCircle
 10
0.01041430784427888
 20
0.6869055129475816
 30
0.0
 40
0.0026703212000432457
  0
CIRCLE
  5
156
330
17
100
AcDbEntity
  8
0
100
AcDbCircle
 10
-0.14822891006322217
 20
0.23892400522854348
 30
0.0
 40
0.01073503938103152
  0
CIRCLE
  5
157
330
17
100
AcDbEntity
  8
0
100
AcDbCircle
 10
0.021168331116874634
 20
0.27364053998934784
 30
0.0
 40
0.005084203129479681
  0
CIRCLE
  5
158
330
17
100
AcDbEntity
  8
0
100
AcDbCircle
 10
-0.38056820457486107
 20
0.26543832756061736
 30
0.0
 40
0.011026896955829254
  0
CIRCLE
  5
159
330
17
100
AcDbEntity
  8
0
100
AcDbCircle
 10
-0.5363932009397581
 20
0.24949248278338107
 30
0.0
 40
0.003365303872580888
  0
CIRCLE
  5
15A
330
17
100
AcDbEntity
  8
0
100
AcDbCircle
 10
-0.021533275408837312
 20
0.4778540375725572
 30
0.0
 40
0.0056794482628512106
  0
CIRCLE
  5
15B
330
17
100
AcDbEntity
  8
0
100
AcDbCircle
 10
-0.23789071955808044
 20
0.17573894346932406
 30
0.0
 40
0.020711421053976203
  0
ENDSEC
  0
SECTION
  2
OBJECTS
  0
DICTIONARY
  5
A
330
0
100
AcDbDictionary
281
1
  3
ACAD_COLOR
350
B
  3
ACAD_GROUP
350
C
  3
ACAD_LAYOUT
350
D
  3
ACAD_MATERIAL
350
E
  3
ACAD_MLEADERSTYLE
350
F
  3
ACAD_MLINESTYLE
350
10
  3
ACAD_PLOTSETTINGS
350
11
  3
ACAD_PLOTSTYLENAME
350
12
  3
ACAD_SCALELIST
350
14
  3
ACAD_TABLESTYLE
350
15
  3
ACAD_VISUALSTYLE
350
16
  3
EZDXF_META
350
2D
  0
DICTIONARY
  5
B
330
A
100
AcDbDictionary
281
1
  0
DICTIONARY
  5
C
330
A
100
AcDbDictionary
281
1
  0
DICTIONARY
  5
D
330
A
100
AcDbDictionary
281
1
  3
Model
350
1A
  3
Layout1
350
1E
  0
DICTIONARY
  5
E
330
A
100
AcDbDictionary
281
1
  3
ByBlock
350
1F
  3
ByLayer
350
20
  3
Global
350
21
  0
DICTIONARY
  5
F
330
A
100
AcDbDictionary
281
1
  3
Standard
350
2C
  0
DICTIONARY
  5
10
330
A
100
AcDbDictionary
281
1
  3
Standard
350
22
  0
DICTIONARY
  5
11
330
A
100
AcDbDictionary
281
1
  0
ACDBDICTIONARYWDFLT
  5
12
330
A
100
AcDbDictionary
281
1
  3
Normal
350
13
100
AcDbDictionaryWithDefault
340
13
  0
ACDBPLACEHOLDER
  5
13
330
12
  0
DICTIONARY
  5
14
330
A
100
AcDbDictionary
281
1
  0
DICTIONARY
  5
15
330
A
100
AcDbDictionary
281
1
  0
DICTIONARY
  5
16
330
A
100
AcDbDictionary
281
1
  0
LAYOUT
  5
1A
330
D
100
AcDbPlotSettings
  1

  2
Adobe PDF
  4
A3
  6

 40
7.5
 41
20.0
 42
7.5
 43
20.0
 44
420.0
 45
297.0
 46
0.0
 47
0.0
 48
0.0
 49
0.0
140
0.0
141
0.0
142
1.0
143
1.0
 70
1024
 72
1
 73
1
 74
5
  7

 75
16
 76
0
 77
2
 78
300
147
1.0
148
0.0
149
0.0
100
AcDbLayout
  1
Model
 70
1
 71
0
 10
0.0
 20
0.0
 11
420.0
 21
297.0
 12
0.0
 22
0.0
 32
0.0
 14
1e+20
 24
1e+20
 34
1e+20
 15
-1e+20
 25
-1e+20
 35
-1e+20
146
0.0
 13
0.0
 23
0.0
 33
0.0
 16
1.0
 26
0.0
 36
0.0
 17
0.0
 27
1.0
 37
0.0
 76
1
330
17
  0
LAYOUT
  5
1E
330
D
100
AcDbPlotSettings
  1

  2
Adobe PDF
  4
A3
  6

 40
7.5
 41
20.0
 42
7.5
 43
20.0
 44
420.0
 45
297.0
 46
0.0
 47
0.0
 48
0.0
 49
0.0
140
0.0
141
0.0
142
1.0
143
1.0
 70
0
 72
1
 73
1
 74
5
  7

 75
16
 76
0
 77
2
 78
300
147
1.0
148
0.0
149
0.0
100
AcDbLayout
  1
Layout1
 70
1
 71
1
 10
0.0
 20
0.0
 11
420.0
 21
297.0
 12
0.0
 22
0.0
 32
0.0
 14
1e+20
 24
1e+20
 34
1e+20
 15
-1e+20
 25
-1e+20
 35
-1e+20
146
0.0
 13
0.0
 23
0.0
 33
0.0
 16
1.0
 26
0.0
 36
0.0
 17
0.0
 27
1.0
 37
0.0
 76
1
330
1B
  0
MATERIAL
  5
1F
102
{ACAD_REACTORS
330
E
102
}
330
E
100
AcDbMaterial
  1
ByBlock
  2

 70
0
 40
1.0
 71
1
 41
1.0
 91
-1023410177
 42
1.0
 72
1
  3

 73
1
 74
1
 75
1
 44
0.5
 73
0
 45
1.0
 46
1.0
 77
1
  4

 78
1
 79
1
170
1
 48
1.0
171
1
  6

172
1
173
1
174
1
140
1.0
141
1.0
175
1
  7

176
1
177
1
178
1
143
1.0
179
1
  8

270
1
271
1
272
1
145
1.0
146
1.0
273
1
  9

274
1
275
1
276
1
 42
1.0
 72
1
  3

 73
1
 74
1
 75
1
 94
63
  0
MATERIAL
  5
20
102
{ACAD_REACTORS
330
E
102
}
330
E
100
AcDbMaterial
  1
ByLayer
  2

 70
0
 40
1.0
 71
1
 41
1.0
 91
-1023410177
 42
1.0
 72
1
  3

 73
1
 74
1
 75
1
 44
0.5
 73
0
 45
1.0
 46
1.0
 77
1
  4

 78
1
 79
1
170
1
 48
1.0
171
1
  6

172
1
173
1
174
1
140
1.0
141
1.0
175
1
  7

176
1
177
1
178
1
143
1.0
179
1
  8

270
1
271
1
272
1
145
1.0
146
1.0
273
1
  9

274
1
275
1
276
1
 42
1.0
 72
1
  3

 73
1
 74
1
 75
1
 94
63
  0
MATERIAL
  5
21
102
{ACAD_REACTORS
330
E
102
}
330
E
100
AcDbMaterial
  1
Global
  2

 70
0
 40
1.0
 71
1
 41
1.0
 91
-1023410177
 42
1.0
 72
1
  3

 73
1
 74
1
 75
1
 44
0.5
 73
0
 45
1.0
 46
1.0
 77
1
  4

 78
1
 79
1
170
1
 48
1.0
171
1
  6

172
1
173
1
174
1
140
1.0
141
1.0
175
1
  7

176
1
177
1
178
1
143
1.0
179
1
  8

270
1
271
1
272
1
145
1.0
146
1.0
273
1
  9

274
1
275
1
276
1
 42
1.0
 72
1
  3

 73
1
 74
1
 75
1
 94
63
  0
MLINESTYLE
  5
22
102
{ACAD_REACTORS
330
10
102
}
330
10
100
AcDbMlineStyle
  2
Standard
 70
0
  3

 62
256
 51
90.0
 52
90.0
 71
2
 49
0.5
 62
256
  6
BYLAYER
 49
-0.5
 62
256
  6
BYLAYER
  0
MLEADERSTYLE
  5
2C
102
{ACAD_REACTORS
330
F
102
}
330
F
100
AcDbMLeaderStyle
179
2
170
2
171
1
172
0
 90
2
 40
0.0
 41
0.0
173
1
 91
-1056964608
 92
-2
290
1
 42
2.0
291
1
 43
8.0
  3
Standard
 44
4.0
300

342
29
174
1
175
1
176
0
178
1
 93
-1056964608
 45
4.0
292
0
297
0
 46
4.0
 94
-1056964608
 47
1.0
 49
1.0
140
1.0
294
1
141
0.0
177
0
142
1.0
295
0
296
0
143
3.75
271
0
272
9
273
9
  0
DICTIONARY
  5
2D
330
A
100
AcDbDictionary
280
1
281
1
  3
CREATED_BY_EZDXF
350
2E
  3
WRITTEN_BY_EZDXF
350
15E
  0
DICTIONARYVAR
  5
2E
330
2D
100
DictionaryVariables
280
0
  1
0.17.2 @ 2024-03-03T10:40:16.562274+00:00
  0
DICTIONARYVAR
  5
15E
330
2D
100
DictionaryVariables
280
0
  1
0.17.2 @ 2024-03-03T10:40:18.597176+00:00
  0
ENDSEC
  0
EOF
